…
``` r
anti_join(bakers,bake)
```

    ## Joining with `by = join_by(baker, series)`

    ## # A tibble: 26 × 6
    ##    baker  baker_last_name series baker_age baker_occupation             hometown
    ##    <chr>  <chr>            <dbl>     <dbl> <chr>                        <chr>   
    ##  1 Alice  Fevronia            10        28 Geography teacher            Essex   
    ##  2 Amelia LeBruin             10        24 Fashion designer             Halifax 
    ##  3 Antony Amourdoux            9        30 Banker                       London  
    ##  4 Briony Williams             9        33 Full-time parent             Bristol 
    ##  5 Dan    Beasley-Harling      9        36 Full-time parent             London  
    ##  6 Dan    Chambers            10        32 Support worker               Rotherh…
    ##  7 David  Atherton            10        36 International health adviser Whitby  
    ##  8 Helena Garcia              10        40 Online project manager       Leeds   
    ##  9 Henry  Bird                10        20 Student                      Durham  
    ## 10 Imelda McCarron             9        33 Countryside recreation offi… County …
    ## # ℹ 16 more rows
…
The final dataset contains all information from the given data and
removes unnecessary data(e.g. a baker’s contest information after
eliminating).

## Answering questions

``` r
win_data <- final_data|>
  filter(series %in% c(5,6,7,8,9,10))|>
  filter(result %in% c('STAR BAKER','WINNER'))|>
  select(-technical, -signature_bake, -show_stopper)
win_data
```

    ## # A tibble: 60 × 8
    ##    baker     baker_last_name series baker_age baker_occupation  hometown episode
    ##    <chr>     <chr>            <dbl>     <dbl> <chr>             <chr>      <dbl>
    ##  1 Alice     Fevronia            10        28 Geography teacher Essex          2
    ##  2 Alice     Fevronia            10        28 Geography teacher Essex          9
    ##  3 Andrew    Smyth                7        25 Aerospace engine… Derby /…       7
    ##  4 Andrew    Smyth                7        25 Aerospace engine… Derby /…       9
    ##  5 Benjamina Ebuehi               7        23 Teaching assista… South L…       4
    ##  6 Briony    Williams             9        33 Full-time parent  Bristol        6
    ##  7 Candice   Brown                7        31 PE teacher        Barton-…       2
    ##  8 Candice   Brown                7        31 PE teacher        Barton-…       5
    ##  9 Candice   Brown                7        31 PE teacher        Barton-…       8
    ## 10 Candice   Brown                7        31 PE teacher        Barton-…      10
    ## # ℹ 50 more rows
    ## # ℹ 1 more variable: result <chr>
…
